%!PS-Adobe-2.0 EPSF-2.0
%%BoundingBox:  0 0 567 588
%%Title: Ratio_M_tt_plot_77_Yt_sensitivity.eps: cs
%%Creator: ROOT Version 6.24/02
%%CreationDate: Wed Jun 21 23:29:58 2023
%%EndComments
%%BeginProlog
80 dict begin
/s {stroke} def /l {lineto} def /m {moveto} def /t {translate} def
/r {rotate} def /rl {roll}  def /R {repeat} def
/d {rlineto} def /rm {rmoveto} def /gr {grestore} def /f {eofill} def
/c {setrgbcolor} def /black {0 setgray} def /sd {setdash} def
/cl {closepath} def /sf {scalefont setfont} def /lw {setlinewidth} def
/box {m dup 0 exch d exch 0 d 0 exch neg d cl} def
/NC{systemdict begin initclip end}def/C{NC box clip newpath}def
/bl {box s} def /bf {gsave box gsave f grestore 1 lw [] 0 sd s grestore} def /Y { 0 exch d} def /X { 0 d} def 
/K {{pop pop 0 moveto} exch kshow} bind def
/ita {/ang 15 def gsave [1 0 ang dup sin exch cos div 1 0 0] concat} def 
/mp {newpath /y exch def /x exch def} def
/side {[w .77 mul w .23 mul] .385 w mul sd w 0 l currentpoint t -144 r} def
/mr {mp x y w2 0 360 arc} def /m24 {mr s} def /m20 {mr f} def
/mb {mp x y w2 add m w2 neg 0 d 0 w neg d w 0 d 0 w d cl} def
/mt {mp x y w2 add m w2 neg w neg d w 0 d cl} def
/w4 {w 4 div} def
/w6 {w 6 div} def
/w8 {w 8 div} def
/m21 {mb f} def /m25 {mb s} def /m22 {mt f} def /m26{mt s} def
/m23 {mp x y w2 sub m w2 w d w neg 0 d cl f} def
/m27 {mp x y w2 add m w3 neg w2 neg d w3 w2 neg d w3 w2 d cl s} def
/m28 {mp x w2 sub y w2 sub w3 add m w3 0 d  0 w3 neg d w3 0 d 0 w3 d w3 0 d  0 w3 d w3 neg 0 d 0 w3 d w3 neg 0 d 0 w3 neg d w3 neg 0 d cl s } def
/m29 {mp gsave x w2 sub y w2 add w3 sub m currentpoint t 4 {side} repeat cl fill gr} def
/m30 {mp gsave x w2 sub y w2 add w3 sub m currentpoint t 4 {side} repeat cl s gr} def
/m31 {mp x y w2 sub m 0 w d x w2 sub y m w 0 d x w2 .707 mul sub y w2 .707 mul add m w 1.44 div w 1.44 div neg d x w2 .707 mul sub y w2 .707 mul sub m w 1.44 div w 1.44 div d s} def
/m32 {mp x y w2 sub m w2 w d w neg 0 d cl s} def
/m33 {mp x y w2 add m w3 neg w2 neg d w3 w2 neg d w3 w2 d cl f} def
/m34 {mp x w2 sub y w2 sub w3 add m w3 0 d  0 w3 neg d w3 0 d 0 w3 d w3 0 d  0 w3 d w3 neg 0 d 0 w3 d w3 neg 0 d 0 w3 neg d w3 neg 0 d cl f } def
/m35 {mp x y w2 add m w2 neg w2 neg d w2 w2 neg d w2 w2 d w2 neg w2 d x y w2 sub m 0 w d x w2 sub y m w 0 d s} def
/m36 {mb x w2 sub y w2 add m w w neg d x w2 sub y w2 sub m w w d s} def
/m37 {mp x y m w4 neg w2 d w4 neg w2 neg d w2 0 d  w4 neg w2 neg d w2 0 d w4 neg w2 d w2 0 d w4 neg w2 d w4 neg w2 neg d cl s} def
/m38 {mp x w4 sub y w2 add m w4 neg w4 neg d 0 w2 neg d w4 w4 neg d w2 0 d w4 w4 d 0 w2 d w4 neg w4 d w2 neg 0 d x y w2 sub m 0 w d x w2 sub y m w 0 d cl s} def
/m39 {mp x y m w4 neg w2 d w4 neg w2 neg d w2 0 d  w4 neg w2 neg d w2 0 d w4 neg w2 d w2 0 d w4 neg w2 d w4 neg w2 neg d cl f} def
/m40 {mp x y m w4 w2 d w4 w4 neg d w2 neg w4 neg d w2 w4 neg d w4 neg w4 neg d w4 neg w2 d w4 neg w2 neg d w4 neg w4 d w2 w4 d w2 neg w4 d w4 w4 d w4 w2 neg d cl s} def
/m41 {mp x y m w4 w2 d w4 w4 neg d w2 neg w4 neg d w2 w4 neg d w4 neg w4 neg d w4 neg w2 d w4 neg w2 neg d w4 neg w4 d w2 w4 d w2 neg w4 d w4 w4 d w4 w2 neg d cl f} def
/m42 {mp x y w2 add m w8 neg w2 -3 4 div mul d w2 -3 4 div mul w8 neg d w2 3 4 div mul w8 neg d w8 w2 -3 4 div mul d w8 w2 3 4 div mul d w2 3 4 div mul w8 d w2 -3 4 div mul w8 d w8 neg w2 3 4 div mul d cl s} def
/m43 {mp x y w2 add m w8 neg w2 -3 4 div mul d w2 -3 4 div mul w8 neg d w2 3 4 div mul w8 neg d w8 w2 -3 4 div mul d w8 w2 3 4 div mul d w2 3 4 div mul w8 d w2 -3 4 div mul w8 d w8 neg w2 3 4 div mul d cl f} def
/m44 {mp x y m w6 neg w2 d w2 2 3 div mul 0 d w6 neg w2 neg d w2 w6 d 0 w2 -2 3 div mul d w2 neg w6 d w6 w2 neg d w2 -2 3 div mul 0 d w6 w2 d w2 neg w6 neg d 0 w2 2 3 div mul d w2 w6 neg d cl s} def
/m45 {mp x y m w6 neg w2 d w2 2 3 div mul 0 d w6 neg w2 neg d w2 w6 d 0 w2 -2 3 div mul d w2 neg w6 d w6 w2 neg d w2 -2 3 div mul 0 d w6 w2 d w2 neg w6 neg d 0 w2 2 3 div mul d w2 w6 neg d cl f} def
/m46 {mp x y w4 add m w4 neg w4 d w4 neg w4 neg d  w4 w4 neg d w4 neg w4 neg d w4 w4 neg d w4 w4 d w4 w4 neg d w4 w4 d w4 neg w4 d w4 w4 d w4 neg w4 d w4 neg w4 neg d cl s} def
/m47 {mp x y w4 add m w4 neg w4 d w4 neg w4 neg d w4 w4 neg d w4 neg w4 neg d  w4 w4 neg d w4 w4 d w4 w4 neg d w4 w4 d w4 neg w4 d w4 w4 d w4 neg w4 d w4 neg w4 neg d cl f} def
/m48 {mp x y w4 add m w4 neg w4 d w4 neg w4 neg d w4 w4 neg d  w4 neg w4 neg d w4 w4 neg d w4 w4 d w4 w4 neg d w4 w4 d w4 neg w4 d w4 w4 d w4 neg w4 d w4 neg w4 neg d  w4 w4 neg d w4 neg w4 neg d w4 neg w4 d w4 w4 d cl f} def
/m49 {mp x w2 sub w3 add y w2 sub w3 add m  0 w3 neg d w3 0 d 0 w3 d w3 0 d 0 w3 d w3 neg 0 d 0 w3 d w3 neg 0 d 0 w3 neg d w3 neg 0 d 0 w3 neg d w3 0 d 0 w3 d w3 0 d 0 w3 neg d w3 neg 0 d cl f } def
/m2 {mp x y w2 sub m 0 w d x w2 sub y m w 0 d s} def
/m5 {mp x w2 .707 mul sub y w2 .707 mul sub m w 1.44 div w 1.44 div d x w2 .707 mul sub y w2 .707 mul add m w 1.44 div w 1.44 div neg d s} def
/reEncode {exch findfont dup length dict begin {1 index /FID eq  {pop pop} {def} ifelse } forall /Encoding exch def currentdict end dup /FontName get exch definefont pop } def [/Times-Bold /Times-Italic /Times-BoldItalic /Helvetica /Helvetica-Oblique
 /Helvetica-Bold /Helvetica-BoldOblique /Courier /Courier-Oblique /Courier-Bold /Courier-BoldOblique /Times-Roman /AvantGarde-Book /AvantGarde-BookOblique /AvantGarde-Demi /AvantGarde-DemiOblique /Bookman-Demi /Bookman-DemiItalic /Bookman-Light
 /Bookman-LightItalic /Helvetica-Narrow /Helvetica-Narrow-Bold /Helvetica-Narrow-BoldOblique /Helvetica-Narrow-Oblique /NewCenturySchlbk-Roman /NewCenturySchlbk-Bold /NewCenturySchlbk-BoldItalic /NewCenturySchlbk-Italic /Palatino-Bold
 /Palatino-BoldItalic /Palatino-Italic /Palatino-Roman ] {ISOLatin1Encoding reEncode } forall
%%EndProlog
%%BeginSetup
%%EndSetup
newpath  gsave  .25 .25 scale  gsave  0 0 t black[  ] 0 sd 3 lw 1 1 1 c 2268 2352 0 0 bf black 1 1 1 c 2223 1576 45 776 bf black 1 1 1 c 1689 1324 379 824 bf black 1689 1324 379 824 bl 1 0 0 c 6 lw 1 1 1 c black 1 0 0 c 379 824 m 1689 X s black 3 lw
 379 824 m 1689 X s 440 860 m -36 Y s 480 842 m -18 Y s 521 842 m -18 Y s 562 842 m -18 Y s 603 842 m -18 Y s 643 860 m -36 Y s 684 842 m -18 Y s 725 842 m -18 Y s 765 842 m -18 Y s 806 842 m -18 Y s 847 860 m -36 Y s 887 842 m -18 Y s 928 842 m -18
 Y s 969 842 m -18 Y s 1010 842 m -18 Y s 1050 860 m -36 Y s 1091 842 m -18 Y s 1132 842 m -18 Y s 1172 842 m -18 Y s 1213 842 m -18 Y s 1254 860 m -36 Y s 1294 842 m -18 Y s 1335 842 m -18 Y s 1376 842 m -18 Y s 1417 842 m -18 Y s 1457 860 m -36 Y s
 1498 842 m -18 Y s 1539 842 m -18 Y s 1579 842 m -18 Y s 1620 842 m -18 Y s 1661 860 m -36 Y s 1701 842 m -18 Y s 1742 842 m -18 Y s 1783 842 m -18 Y s 1824 842 m -18 Y s 1864 860 m -36 Y s 1905 842 m -18 Y s 1946 842 m -18 Y s 1986 842 m -18 Y s
 2027 842 m -18 Y s 2068 860 m -36 Y s 440 860 m -36 Y s 399 842 m -18 Y s 2068 860 m -36 Y s
 gsave  2223 1576 45 776 C 374.695 755.905 t 0 r /Helvetica findfont 75.0537 sf 0 0 m (400) show NC gr 
 gsave  2223 1576 45 776 C 579.962 755.905 t 0 r /Helvetica findfont 75.0537 sf 0 0 m (500) show NC gr 
 gsave  2223 1576 45 776 C 781.971 755.905 t 0 r /Helvetica findfont 75.0537 sf 0 0 m (600) show NC gr 
 gsave  2223 1576 45 776 C 987.239 755.905 t 0 r /Helvetica findfont 75.0537 sf 0 0 m (700) show NC gr 
 gsave  2223 1576 45 776 C 1189.25 755.905 t 0 r /Helvetica findfont 75.0537 sf 0 0 m (800) show NC gr 
 gsave  2223 1576 45 776 C 1394.52 755.905 t 0 r /Helvetica findfont 75.0537 sf 0 0 m (900) show NC gr 
 gsave  2223 1576 45 776 C 1573.72 755.905 t 0 r /Helvetica findfont 75.0537 sf 0 0 m (1000) show NC gr 
 gsave  2223 1576 45 776 C 1778.98 755.905 t 0 r /Helvetica findfont 75.0537 sf 0 0 m (1100) show NC gr 
 gsave  2223 1576 45 776 C 1980.99 755.905 t 0 r /Helvetica findfont 75.0537 sf 0 0 m (1200) show NC gr  379 2148 m 1689 X s 440 2112 m 36 Y s 480 2130 m 18 Y s 521 2130 m 18 Y s 562 2130 m 18 Y s 603 2130 m 18 Y s 643 2112 m 36 Y s 684 2130 m 18 Y s
 725 2130 m 18 Y s 765 2130 m 18 Y s 806 2130 m 18 Y s 847 2112 m 36 Y s 887 2130 m 18 Y s 928 2130 m 18 Y s 969 2130 m 18 Y s 1010 2130 m 18 Y s 1050 2112 m 36 Y s 1091 2130 m 18 Y s 1132 2130 m 18 Y s 1172 2130 m 18 Y s 1213 2130 m 18 Y s 1254 2112